…
    ## Warning: There was 1 warning in `mutate()`.
    ## ℹ In argument: `victim_age = as.numeric(victim_age)`.
    ## Caused by warning:
    ## ! NAs introduced by coercion

``` r
print(homicides)
```

    ## # A tibble: 39,403 × 14
    ##    uid        reported_date victim_last  victim_first victim_race victim_age
    ##    <chr>              <dbl> <chr>        <chr>        <chr>            <dbl>
    ##  1 Alb-000003      20100601 SATTERFIELD  VIVIANA      White               15
    ##  2 Alb-000005      20100102 MULA         VIVIAN       White               72
    ##  3 Alb-000006      20100126 BOOK         GERALDINE    White               91
    ##  4 Alb-000009      20100130 MARTIN-LEYVA GUSTAVO      White               56
    ##  5 Alb-000016      20100308 GRAY         STEFANIA     White               43
    ##  6 Alb-000018      20100323 DAVID        LARRY        White               52
    ##  7 Alb-000019      20100402 BRITO        ELIZABETH    White               22
    ##  8 Alb-000021      20100423 KING         TEVION       Black               15
    ##  9 Alb-000022      20100423 BOYKIN       CEDRIC       Black               25
    ## 10 Alb-000023      20100518 BARRAGAN     MIGUEL       White               20
    ## # ℹ 39,393 more rows
    ## # ℹ 8 more variables: victim_sex <chr>, city <chr>, state <chr>, lat <dbl>,
    ## #   lon <dbl>, disposition <chr>, city_state <chr>, solved_binary <dbl>
…
